62630 440950 449
344617 159518 443
717259 604376 509
909119 403493 525
320987 381938 441
339064 67992 443
469157 400760 449
877629 310887 525
772699 10292 509
513863 641247 509
160949 957300 525
629076 200157 509
793548 979060 525
568298 34823 470
896129 649344 525
359368 675926 509
102559 825265 509
887820 821947 525
515843 841221 525
25570 852543 525
160795 315985 443
179720 735563 509
154112 497788 449
227802 947887 525
949811 491448 525
542997 429877 470
664650 927775 525
545888 829629 509
317808 539724 470
628915 543917 509
626084 194508 470
745271 339207 509
720878 680670 504
610074 778044 509
733722 102050 509
938685 80284 525
205906 804315 509
331026 707943 509
650662 354693 509
242293 931407 525
823571 630915 504
826087 545032 509
254604 584235 470
833487 570203 509
872465 353965 525
894907 531530 525
369669 26227 443
467268 646988 509
562747 499319 470
592501 360928 470
454988 105136 449
476779 221606 449
786350 450478 509
449574 71442 449
658232 965859 525
444745 339632 449
160889 683198 509
541246 709139 509
347741 372483 410
900301 833371 525
619070 233751 470
955414 12848 525
766325 167598 509
747201 348313 509
537067 709274 509
933519 260778 525
826774 673293 504
720669 662855 504
454294 493237 444
35633 679639 509
814367 252931 509
828313 859298 525
401007 824321 509
31261 389046 443
759149 182936 509
411416 723902 509
967936 758528 525
321053 133358 443
149935 593085 470
963061 172473 525
59500 890699 525
798237 400659 509
643183 618182 509
731855 467825 509
705893 248804 509
540996 160286 470
62173 816704 509
444191 441948 356
114112 746266 509
293623 945202 525
905680 491969 525
923556 246816 525
45287 712100 509
340170 615444 470
608232 298138 470
102717 401688 443
93401 459890 449
11485 520121 470
114133 191345 383
979113 214501 525
129295 479157 449
537798 74661 470
541868 834860 509
92057 316562 443
346919 667124 509
54721 384096 443
536539 920061 525
966379 831745 525
961348 5772 525
355699 40565 443
922495 832231 525
157795 29634 383
478270 6479 449
865217 507923 525
877535 87301 525
665 234901 443
416218 595960 470
703722 157960 509
781323 363927 509
258210 372331 441
111824 926060 525
373339 217228 443
393254 998528 525
453097 470847 444
55986 558492 470
296026 901437 525
38093 461987 449
861127 565362 525
196750 221836 386
565215 19671 470
231071 90111 443
633148 959979 525
828528 630529 504
697053 136308 509
937306 538573 525
866561 127200 525
289675 417786 449
399091 714346 509
510741 784085 509
44578 689988 509
599092 891552 525
375324 681484 509
739073 34478 509
889387 83437 525
881886 861512 432
866177 157650 525
564674 890822 525
204835 608629 470
235750 581203 470
74722 602811 470
728510 708076 411
